,iso2,cname,iso3,ccont,popdata,rsquared,progress,final,start,peak,floor,beta,mu,maxcur,mcpop,target,Governance and socio-economic measures,Humanitarian exemption,Lockdown,Movement restrictions,Public health measures,Social distancing
0,AE,United_Arab_Emirates,ARE,Asia,9770526.0,0.9942673474053232,0.6619860644707072,48966.28756152667,2020-03-22,2020-05-12,2020-09-25,25.83277738469197,132.8965212458275,9642.257984595586,0.00098687194370043,-3.005739197636706,2.0,,14.5,12.571428571428571,1.0,17.5
1,AF,Afghanistan,AFG,Asia,38041757.0,0.994937228780493,0.1750309174972516,74902.5864580493,2020-04-18,2020-06-25,2020-11-27,39.70623759306557,176.92097916320702,9664.44263682638,0.0002540482721874907,-3.595083754432057,-53.8,,-21.0,-53.375,-47.34375,-35.333333333333336
2,AG,Antigua_and_Barbuda,ATG,America,97115.0,0.9834651695346388,0.9902050949716844,23.66032203585196,2020-03-23,2020-04-05,2020-05-02,7.927176819126236,95.5263516247232,13.604608300849154,0.00014008761057353813,-3.853600272262217,8.428571428571429,,26.6,0.5,-0.3,13.583333333333334
3,AL,Albania,ALB,Europe,2862427.0,0.9935612000129024,0.9059445900368776,1171.9417471971308,2020-03-14,2020-04-16,2020-06-20,22.738032071647435,107.2860873223023,261.264416895982,9.127373969571346e-05,-4.039654155058334,9.733333333333333,,24.5,9.833333333333334,-12.272727272727273,3.125
4,AM,Armenia,ARM,Europe,2957728.0,0.970086819502624,0.2524221614382002,33758.9675755964,2020-03-08,2020-06-25,2021-04-15,54.98835971200751,177.43980990373615,3153.459960823173,0.0010661764573426538,-2.972170911530675,33.75,,27.0,12.384615384615385,20.0,12.75
5,AR,Argentina,ARG,America,44780675.0,0.9686625022912672,0.3070923676013962,47706.75425342321,2020-04-01,2020-06-17,2020-11-17,51.011048201914285,169.28432358613986,4801.508056931093,0.00010722277091471027,-3.9697129736690133,11.7,,19.0,2.5454545454545454,2.8181818181818183,-16.25
6,AT,Austria,AUT,Europe,8858775.0,0.9917017968706944,1.0448960753196077,15844.091065577672,2020-03-09,2020-03-28,2020-05-19,9.831589192441532,88.28993144290114,7645.327838253132,0.0008630231423930659,-3.0639775583069815,33.921052631578945,,21.0,16.363636363636363,35.13333333333333,27.846153846153847
7,AU,Australia,AUS,Oceania,25203200.0,0.9988743144987526,1.0851643809206812,6594.524279419679,2020-03-17,2020-03-28,2020-04-23,6.879918776981988,88.20881284290017,4213.195846322799,0.00016716908354188353,-3.7768440384321242,20.878048780487806,,12.0,19.0,25.05263157894737,25.73076923076923
8,AZ,Azerbaijan,AZE,Europe,10047719.0,0.959723684405976,0.6615572867044661,7246.753838817936,2020-03-26,2020-05-13,2020-08-19,31.603385417372248,133.76025747079348,1171.1367845431128,0.00011655747782587399,-3.933459858785737,0.6666666666666666,,6.833333333333333,-8.777777777777779,3.142857142857143,6.6
9,BA,Bosnia_and_Herzegovina,BIH,Europe,3300998.0,0.9963810626197684,0.91321609565605,2657.64041122866,2020-03-17,2020-04-18,2020-06-27,18.79654007170495,108.60717522546264,711.3503715094122,0.00021549554756149873,-3.6665616985401317,22.88888888888889,,37.5,13.583333333333334,27.11764705882353,26.428571428571427
10,BB,Barbados,BRB,America,287021.0,0.9883813210543564,1.1398905149608145,75.571167592195,2020-03-19,2020-04-02,2020-05-02,8.698230372880795,93.01677756902234,40.33473803510135,0.00014052887431616974,-3.8522344325716604,15.75,,18.166666666666668,18.933333333333334,5.894117647058824,11.681818181818182
11,BD,Bangladesh,BGD,Asia,163046173.0,0.990178721453384,0.4484377430601744,90943.345406792,2020-04-20,2020-05-29,2020-08-15,25.61081811840382,149.89940944352523,18059.603688866027,0.00011076373861817675,-3.955602393899359,-12.833333333333334,,0.25,-10.5,-11.6,41.0
12,BE,Belgium,BEL,Europe,11455519.0,0.9990290859943278,0.9709258904384068,60419.64744962318,2020-03-06,2020-04-07,2020-07-09,15.99562663361898,98.23906512635476,18843.35745781746,0.001644915211420579,-2.7838564832223334,36.041666666666664,,26.0,28.166666666666668,46.921052631578945,31.166666666666668
13,BG,Bulgaria,BGR,Europe,7000039.0,0.9933058976224908,0.723665437874726,3384.3579195555385,2020-03-19,2020-04-29,2020-07-16,27.912491838082065,119.71563812368036,617.8093625953145,8.825798864767961e-05,-4.054245974114833,20.555555555555557,,3.75,15.0,21.157894736842106,18.4
14,BH,Bahrain,BHR,Asia,1641164.0,0.9951035697775116,0.1236111961112098,81643.75740737058,2020-02-27,2020-07-22,2021-10-11,67.46315501441777,203.77638922429972,6224.6626477168975,0.0037928340176343724,-2.4210361625180803,47.5,,,22.142857142857142,36.0,25.5
15,BJ,Benin,BEN,Africa,11801151.0,0.99668114116148,0.913932831450444,234.15287495512592,2020-05-09,2020-05-11,2020-05-16,1.8873631636301889,132.0646826929271,232.50299007774905,1.970172147426544e-05,-4.705495824898781,-23.4,,,-31.545454545454547,-21.058823529411764,-27.77777777777778
16,BN,Brunei_Darussalam,BRN,Asia,433296.0,0.9974451098935072,1.0019850542308626,109.63950249883789,2020-03-14,2020-03-23,2020-04-14,5.784515031199784,83.08554299229503,78.6938221029922,0.00018161677491366688,-3.740844040638828,51.0,,4.0,40.375,34.0,27.76923076923077
17,BO,Bolivia,BOL,America,11513102.0,0.9958929482479336,0.0914810670485224,90814.34728801726,2020-04-10,2020-07-18,2021-04-01,51.0891807385456,199.71623222886984,9126.169095342704,0.0007926768211853508,-3.100903840909004,-4.363636363636363,,5.625,-7.7272727272727275,-3.0,-14.6
18,BR,Brazil,BRA,America,211049519.0,0.9946819682741443,0.1752428425708648,2522704.169299843,2020-03-27,2020-06-29,2021-03-15,46.60195879219918,181.0524098096058,277740.28137427766,0.0013159958036875585,-2.880745495553555,12.75,,31.0,17.61111111111111,14.928571428571429,7.4
19,BS,Bahamas,BHS,America,389486.0,0.9966420935841966,0.9838778002005816,99.1702715027586,2020-03-25,2020-04-14,2020-05-24,13.766993124032275,104.89115651093005,35.55252468766965,9.12806228918874e-05,-4.039621404987886,9.88888888888889,,18.2,-7.5,2.7837837837837838,-3.6666666666666665
20,BT,Bhutan,BTN,Asia,763094.0,0.9103387591139812,0.9966476446695046,31.964298543751557,2020-05-15,2020-05-23,2020-06-03,10.185836389788726,143.50832800355488,14.974072039934748,1.9622840750857364e-05,-4.707238120650463,-14.5,,,-49.18181818181818,-43.9375,-65.0
21,BY,Belarus,BLR,Europe,9452409.0,0.9963291424730736,0.7399683032835561,53809.06158183621,2020-03-31,2020-05-10,2020-08-31,19.980881456455503,131.01065472810998,13588.282114986674,0.0014375469909296851,-2.842377950069352,9.714285714285714,,,3.2857142857142856,3.0,-5.5
22,BZ,Belize,BLZ,America,390351.0,0.9975790437833784,0.7868869914625409,21.0594770929282,2020-04-07,2020-04-14,2020-04-26,5.7059511923187225,104.62041104746778,15.210609470462728,3.8966492901165175e-05,-4.4093086802276265,-2.5,,-6.166666666666667,-7.777777777777778,-16.28,-14.625
23,CA,Canada,CAN,America,37411038.0,0.9976334153145604,0.8630474297450296,102438.83288623363,2020-03-16,2020-04-24,2020-08-04,20.78733663708596,115.38895997658643,24901.340309127376,0.0006656147928621327,-3.176777034693586,32.05357142857143,,,15.125,15.488372093023257,19.4
24,CD,Democratic_Republic_of_the_Congo,COD,Africa,86790568.0,0.9978083841892026,1.499994473977962,1824.19719655975,2020-05-24,2020-05-27,2020-06-02,5.281210857995358,148.42812709677133,1380.536612411202,1.5906528142680227e-05,-4.798424601812612,-54.5,,-32.8,-40.2,-41.8,-58.0
25,CF,Central_African_Republic,CAF,Africa,4745179.0,0.9969074514667002,0.1971978832667939,4072.0518182181727,2020-05-03,2020-06-15,2020-09-15,26.55949793020028,166.98623969796037,780.4520602219508,0.00016447262794974662,-3.7839063683493173,-41.0,,,-37.75,-26.454545454545453,-37.75
26,CG,Congo,COG,Africa,5380504.0,0.9569888497516772,0.6332414614902432,905.7704859259364,2020-04-22,2020-05-22,2020-07-06,29.56632579176697,142.7210764043783,156.27817936892563,2.904526776096173e-05,-4.5369246155185445,-15.5,,-7.0,-1.7142857142857142,-12.75,-27.75
27,CH,Switzerland,CHE,Europe,8544527.0,0.9693106337890568,1.0433691746870126,29440.065786945943,2020-03-09,2020-03-28,2020-05-22,9.168478855007056,88.14861260540131,15052.294900437984,0.0017616299767603267,-2.754085308141381,35.1,,14.0,18.066666666666666,35.3,25.75
28,CI,Cote_dIvoire,CIV,Africa,25716554.0,0.9876487713833404,0.8384726577175439,3142.618874612824,2020-04-14,2020-05-06,2020-06-08,22.35124767949379,126.891810949928,712.3015406227939,2.7698172182120278e-05,-4.557548889325823,8.5,,-5.0,-14.777777777777779,-8.2,-9.333333333333334
29,CL,Chile,CHL,America,18952035.0,0.9751843625003246,0.2402165504859588,360519.9529242057,2020-03-15,2020-06-25,2021-04-12,48.83088377151904,176.68180949221835,37892.84612710197,0.0019994077747905155,-2.699098623450091,35.583333333333336,,35.142857142857146,23.0,33.53846153846154,15.444444444444445
30,CM,Cameroon,CMR,Africa,25876387.0,0.9660971141948508,0.3581102203969187,15282.166254876807,2020-04-10,2020-06-08,2020-09-26,43.14781924055941,160.02333292077182,1816.027562247481,7.018087812056146e-05,-4.153781202086295,-11.666666666666666,,,-24.833333333333332,-8.666666666666666,-17.166666666666668
31,CN,China,CHN,Asia,1433783692.0,0.9965789253706964,0.8567004644732462,98148.49020136488,2020-02-03,2020-02-12,2020-03-01,8.616987360339333,43.43091772345897,52833.73940033028,3.6849170272422293e-05,-4.433572286642525,73.54545454545455,,106.0,63.0,63.2,50.0
32,CO,Colombia,COL,America,50339443.0,0.988272852026595,0.3128807957424239,81469.87148046479,2020-04-01,2020-06-11,2020-11-14,43.05035181856912,163.4523580482484,9703.199179604297,0.0001927553942065727,-3.7149934594955845,9.941176470588236,-9.0,17.88888888888889,7.666666666666667,9.466666666666667,7.166666666666667
33,CR,Costa_Rica,CRI,America,5047561.0,0.9421289911824658,0.96881867756357,1019.9461261648726,2020-03-14,2020-04-11,2020-05-29,23.67225158851299,101.99072130769774,218.6719582559645,4.332230125717441e-05,-4.363288481946362,15.0,,,28.571428571428573,39.714285714285715,11.0
34,CU,Cuba,CUB,America,11333484.0,0.9954290246624932,1.0346152416026655,1908.6460418419551,2020-03-31,2020-04-17,2020-05-19,12.323868841735877,108.00749359475762,756.5345992321342,6.675216546228275e-05,-4.175534641078507,-18.6,,16.5,15.0,1.1818181818181819,9.0
35,CV,Cape_Verde,CPV,Africa,549936.0,0.9815898807634628,0.7269810939511238,550.810158283793,2020-04-07,2020-05-10,2020-07-26,19.2459249138668,131.433538115713,144.15583367417847,0.00026213201840610264,-3.5814799284322287,15.73076923076923,,29.0,-8.76923076923077,22.428571428571427,2.142857142857143
36,CY,Cyprus,CYP,Europe,875899.0,0.9940113947620276,0.9899212821037374,919.9865708300316,2020-03-14,2020-04-07,2020-06-03,12.898641147797232,97.5677229344664,349.9147483499746,0.00039949211992475685,-3.398491782825453,25.142857142857142,,10.0,22.5,20.615384615384617,17.555555555555557
37,CZ,Czechia,CZE,Europe,10649800.0,0.9825439352899668,0.9776331567731932,9348.963953948169,2020-03-09,2020-04-07,2020-06-13,17.04810064843612,97.8567567250104,2746.1557516978387,0.0002578598425977801,-3.5886162867729876,36.93939393939394,,7.0,14.4,30.846153846153847,11.333333333333334
38,DE,Germany,DEU,Europe,83019213.0,0.9969825685939572,0.986123352087723,182972.4731590959,2020-03-08,2020-04-05,2020-06-17,14.518268399949196,95.73989227601196,62457.57971896543,0.000752326810409121,-3.123593461103494,34.733333333333334,,21.666666666666668,27.181818181818183,39.3,24.285714285714285
39,DJ,Djibouti,DJI,Africa,973557.0,0.943819074175877,0.6812334748750525,4194.282603860553,2020-03-24,2020-05-15,2020-09-29,27.032293201304597,135.9769680367604,790.134022927566,0.0008115950303141634,-3.090660620970559,-1.0,,21.0,15.857142857142858,11.65,11.571428571428571
40,DK,Denmark,DNK,Europe,5806081.0,0.9970999964176244,0.9353419048219948,12325.821267519172,2020-03-04,2020-04-10,2020-07-11,19.62642873034997,100.8409759651602,3166.2873204182297,0.0005453398463469989,-3.263332768558555,39.19512195121951,,14.0,15.090909090909092,40.84415584415584,19.08823529411765
41,DM,Dominica,DMA,America,71808.0,0.9878069617842682,0.9418184797759624,11.982897477652918,2020-03-23,2020-04-01,2020-04-20,5.529332938007247,91.57584076528576,8.821819550893078,0.00012285287921809656,-3.9106146608047494,11.266666666666667,,8.5,8.5,9.67741935483871,8.666666666666666
42,DO,Dominican_Republic,DOM,America,10738957.0,0.9912129273147036,0.703482762387391,22900.754030870936,2020-03-19,2020-05-07,2020-09-03,27.36277282278103,127.95020843956044,4263.130972427221,0.0003969781210993974,-3.4012334281175867,38.23076923076923,,,15.0,22.25,2.0
43,DZ,Algeria,DZA,Africa,43053054.0,0.9873623538001948,0.6796544498773588,13163.20162450712,2020-04-02,2020-05-09,2020-07-13,28.700324655651244,129.80271334775665,2338.40782459138,5.4314563250063054e-05,-4.26508370832744,-10.0,,13.142857142857142,11.208333333333334,6.0,-2.125
44,EC,Ecuador,ECU,America,17373657.0,0.9835827365921396,0.7815740870057543,48820.15929505878,2020-03-19,2020-04-29,2020-08-14,21.87549385953835,120.11440629523791,11298.7048229072,0.0006503354373179579,-3.1868625802803967,24.714285714285715,,-9.5,2.75,18.285714285714285,-1.6666666666666667
45,EE,Estonia,EST,Europe,1324820.0,0.9885272924952814,0.9870160167698392,1811.3760187075568,2020-03-06,2020-04-03,2020-06-11,15.262801542617847,93.78803553261676,590.2726580878989,0.0004455493260125141,-3.3511042089577283,44.029411764705884,,29.5,40.38461538461539,34.529411764705884,36.68421052631579
46,EG,Egypt,EGY,Africa,100388076.0,0.9896329210407436,0.368028504471693,57175.2979893553,2020-04-16,2020-06-06,2020-09-11,35.6409438316825,157.6210261881762,8208.20465548954,8.176473723323018e-05,-4.087433954603548,-5.4,,25.0,2.5714285714285716,-13.125,-2.75
47,EL,Greece,GRC,Europe,10724599.0,0.99499299546402,0.9982991303370138,2866.1606800356312,2020-03-11,2020-04-02,2020-05-15,15.034103636452624,92.72840291574136,947.1715813924384,8.831766869721082e-05,-4.053952403443,12.5,,37.55555555555556,27.75,30.0,14.166666666666666
48,ES,Spain,ESP,Europe,46937060.0,0.9954005487633868,0.9904100529602315,240563.13053873015,2020-03-04,2020-04-02,2020-06-25,14.173055968420526,93.0747530895615,83963.33648847323,0.001788849503749771,-2.7474261951734356,40.0,,24.2,30.88888888888889,44.0,31.454545454545453
49,FI,Finland,FIN,Europe,5517919.0,0.9988919327935312,0.9126122339499196,7193.635758733507,2020-03-12,2020-04-15,2020-07-07,19.50687299819418,106.47203595137888,1858.529979489545,0.00033681719131606406,-3.4726057500014753,34.41379310344828,,,21.0,35.58695652173913,19.571428571428573
50,FJ,Fiji,FJI,Oceania,889955.0,0.9997526699972624,1.3153862814158712,11.946517868021992,2020-04-05,2020-04-07,2020-04-11,3.1599443372224147,97.84697318516488,11.128503293638692,1.2504568538452722e-05,-4.902931288707715,20.7,,-2.75,7.55,4.620689655172414,11.857142857142858
51,FR,France,FRA,Europe,67012883.0,0.9969281133832132,0.9852179108018296,150592.93534575237,2020-03-07,2020-04-06,2020-06-21,15.268389952551171,96.56698741221274,49044.72519759553,0.0007318700972407877,-3.1355659968896643,37.25,,23.0,42.0,44.42857142857143,40.0
52,GA,Gabon,GAB,Africa,2172578.0,0.9922045884402096,0.1217896742490048,19981.71374828586,2020-04-12,2020-07-01,2021-02-07,40.5676409704563,183.4224464686905,2524.0849027994336,0.0011617925353195298,-2.9348714182539646,-5.285714285714286,,7.0,-12.333333333333334,-12.444444444444445,-16.5
53,GD,Grenada,GRD,America,112002.0,0.9724458153100244,0.9574185491367074,21.337137709512284,2020-03-17,2020-04-09,2020-05-20,18.26054477441238,99.71131113528143,5.871486920821942,5.2423054238513084e-05,-4.280477680064507,21.428571428571427,,41.5,2.0,1.8,5.5
54,GE,Georgia,GEO,Europe,3996762.0,0.9980950188509122,0.9614426436986222,759.4242484752219,2020-03-28,2020-04-19,2020-05-29,17.310813381506033,110.0599594358228,219.87842808072875,5.5014140967295215e-05,-4.259525664056583,14.272727272727273,,5.333333333333333,8.68421052631579,6.888888888888889,13.428571428571429
55,GH,Ghana,GHA,Africa,30417858.0,0.9927529792028578,0.6485958253748209,11442.080605426596,2020-04-16,2020-05-16,2020-07-14,20.41314877274202,136.91795028222006,2830.575665258276,9.305637712090956e-05,-4.031253859464743,-0.6666666666666666,,-10.0,-26.714285714285715,-15.642857142857142,0.8
56,GN,Guinea,GIN,Africa,12771246.0,0.9982251045385516,0.7216025317029512,4900.99642557982,2020-04-08,2020-05-10,2020-07-10,21.532814735182114,130.62342066164337,1151.3979997559063,9.015549459746577e-05,-4.045007799716493,5.833333333333333,,,-13.4,-12.0,-12.0
57,GQ,Equatorial_Guinea,GNQ,Africa,1355982.0,0.980489853888366,0.601140431610847,1857.4219431168583,2020-04-12,2020-05-20,2020-08-17,21.45954805345944,140.53678766526923,437.8323028822744,0.0003228894652600657,-3.4909461242428472,-2.36,,14.0,-12.904761904761905,0.05555555555555555,-13.066666666666666
58,GT,Guatemala,GTM,America,17581476.0,0.9834398341313064,0.1108849572171001,39434.62080194913,2020-04-26,2020-07-05,2020-12-13,39.95261953437549,186.90261333252505,5057.052943898386,0.00028763528977307625,-3.5411578317331793,-25.0,,26.0,-19.392857142857142,-12.25,-20.0
59,GW,Guinea_Bissau,GNB,Africa,1920917.0,0.9413821708943332,0.1567806264632546,7761.522576788127,2020-04-11,2020-06-21,2020-12-15,37.95477522360451,172.82326387218956,1047.1096290450394,0.000545109252010909,-3.2635164467318245,10.857142857142858,,30.0,-0.6,9.5,-3.8
60,GY,Guyana,GUY,America,782775.0,0.9745985114634031,0.8534320086915175,166.05222709014515,2020-03-30,2020-04-27,2020-06-15,23.2520349584641,118.45462075321588,36.22272788264693,4.62747633517255e-05,-4.334655793543239,22.0,,,25.833333333333332,11.421052631578947,-4.833333333333333
61,HN,Honduras,HND,America,9746115.0,0.9677210045943928,0.0961649296309179,49123.36204518191,2020-04-05,2020-07-27,2021-04-28,62.61193106304896,209.48627955695304,4033.506683766941,0.00041385789966226965,-3.3831487506330946,11.125,,19.666666666666668,2.875,7.846153846153846,-9.428571428571429
62,HR,Croatia,HRV,Europe,4076246.0,0.9958997747882852,0.9933707736813332,2239.2732203959067,2020-03-16,2020-04-05,2020-05-20,11.88049069720317,95.64249758553176,917.1434385690538,0.0002249970778429599,-3.6478231222660544,8.272727272727273,,33.0,5.4,20.823529411764707,29.25
63,HT,Haiti,HTI,America,11263079.0,0.9976983072056036,0.3761937364095189,4007.433624387379,2020-05-13,2020-06-02,2020-07-16,13.433831963621945,154.37758343254555,1468.3404825956432,0.0001303675915436306,-3.884830357707416,-36.25,,-51.5,-28.11111111111111,-27.727272727272727,-25.625
64,HU,Hungary,HUN,Europe,9772756.0,0.9987541713366712,0.9346420806981448,4088.654523851627,2020-03-22,2020-04-18,2020-06-12,17.574114226553977,108.51369279357613,1166.5756861506943,0.00011937018443422658,-3.923104135121928,7.324324324324325,,6.333333333333333,-1.4666666666666666,4.925,-0.4444444444444444
65,ID,Indonesia,IDN,Asia,270625567.0,0.9856624434016136,0.6955160209878558,35117.60534960317,2020-04-23,2020-05-16,2020-06-21,25.458907933564877,137.30990947108134,7014.554259435172,2.59197766759235e-05,-4.586368744654528,13.0,,-7.5,-35.55,-27.157894736842106,6.0
66,IE,Ireland,IRL,Europe,4904240.0,0.9969267401491292,0.9624430902723752,25725.60271010056,2020-03-15,2020-04-14,2020-07-08,14.357005459392411,104.72310292424837,8872.44279115917,0.0018091371529858184,-2.74252850747572,18.77777777777778,13.0,19.5,16.375,31.933333333333334,8.666666666666666
67,IL,Israel,ISR,Asia,8519373.0,0.9964939142280392,1.003281491366711,16720.560197493927,2020-03-17,2020-04-06,2020-05-30,10.336736125827835,96.5284007092002,7735.035456510994,0.0009079348276582084,-3.0419453243910635,27.0,26.0,21.90909090909091,6.35,5.208333333333333,18.357142857142858
68,IN,India,IND,Asia,1366417756.0,0.9946573283463394,0.5176598223090166,322166.0661758559,2020-04-30,2020-05-28,2020-07-17,21.75688025726769,148.5325979591464,74940.11274465757,5.4844217601529445e-05,-4.2608691547096615,-6.5,,-34.6,-33.1,-32.93333333333333,-43.8
69,IQ,Iraq,IRQ,Asia,39309789.0,0.9419636005205329,0.3655916731848147,14909.807974355634,2020-04-18,2020-06-17,2020-09-22,54.41920304224105,168.91979107700357,1407.1663378050644,3.579684281197908e-05,-4.446155275305845,-11.333333333333334,,2.5714285714285716,-6.219512195121951,-13.2,-19.8
70,IR,Iran,IRN,Asia,82913893.0,0.9823483364581084,0.8676371522534234,166257.61732173956,2020-02-24,2020-04-15,2020-08-15,28.550985514374428,106.30050048608682,29689.41315801663,0.0003580752523345711,-3.446025693358197,66.14285714285714,,14.666666666666666,19.833333333333332,11.363636363636363,31.5
71,IS,Iceland,ISL,Europe,356991.0,0.981664392408284,0.9955165099224164,1813.12914653788,2020-03-06,2020-03-24,2020-05-21,8.951964647142953,84.36623687846027,946.1404741941956,0.0026503202439114586,-2.5767016461535346,49.03030303030303,,,32.5,39.64,25.75
72,IT,Italy,ITA,Europe,60359546.0,0.9996550140751266,0.9742767333963224,237760.98931613303,2020-02-28,2020-04-01,2020-07-03,16.948171694428986,92.45806965060876,70208.60280364368,0.00116317314254888,-2.9343556341479315,43.17142857142857,,28.666666666666668,29.933333333333334,47.13559322033898,37.10526315789474
73,JM,Jamaica,JAM,America,2948277.0,0.9759033482217834,1.058094177816383,527.7683056351518,2020-04-07,2020-04-24,2020-05-26,11.939899463504291,114.9002331761526,215.21517112677572,7.299693045354141e-05,-4.136695401730461,,,7.0,4.0,-1.4444444444444444,-19.666666666666668
74,JP,Japan,JPN,Asia,126860299.0,0.99943437149092,1.105736276969437,15139.621372747351,2020-04-03,2020-04-16,2020-05-11,10.087400580598914,107.38593672653512,7149.631629991884,5.635830662823745e-05,-4.249042064410457,-7.916666666666667,,35.0,3.4,-14.607142857142858,-17.875
75,KG,Kyrgyzstan,KGZ,Asia,6415851.0,0.978073904438374,0.7589560904158146,2159.356994404649,2020-03-30,2020-05-05,2020-07-10,27.022381976327768,126.06607730454738,406.9416394463248,6.34275389884093e-05,-4.197722139059551,2.0,,11.5,-14.625,4.3076923076923075,-9.666666666666666
76,KN,Saint_Kitts_and_Nevis,KNA,America,52834.0,0.9870937009363112,0.9225558566287202,12.852493181791946,2020-03-24,2020-04-06,2020-05-04,8.077044717628386,97.00215419922276,7.272523611919505,0.00013764855229434655,-3.861228351897843,17.75,,26.666666666666668,18.125,33.578947368421055,16.2
77,KR,South_Korea,KOR,Asia,51225321.0,0.9683327231449026,1.1448453590833323,9938.709734034475,2020-02-22,2020-03-05,2020-04-01,8.391117234685874,65.18618094583184,5461.575036031845,0.00010661865908135247,-3.972166783799719,83.84615384615384,,29.0,37.666666666666664,61.18181818181818,61.142857142857146
78,KZ,Kazakhstan,KAZ,Asia,18551428.0,0.9931927208157504,0.516704601998761,19404.289104261534,2020-03-31,2020-05-22,2020-09-12,32.50729225631672,143.47752261049158,3050.3391847907374,0.00016442611236130918,-3.784029211407314,19.647058823529413,,8.75,-11.25,16.526315789473685,6.0
79,LB,Lebanon,LBN,Asia,6855709.0,0.8774563695329042,0.8951679362760936,1185.252403147761,2020-03-17,2020-04-18,2020-06-04,35.94919484212707,109.27727437768662,168.7251048580033,2.46108906982492e-05,-4.608872668364051,25.333333333333332,,34.6,19.444444444444443,5.8,8.6
80,LC,Saint_Lucia,LCA,America,182795.0,0.8136865948054717,1.1306528240237237,14.403815158535858,2020-03-19,2020-04-01,2020-04-23,12.785036155890252,92.31449169411611,5.520641883894808,3.0201274016766367e-05,-4.519974736288509,17.928571428571427,,15.0,6.7272727272727275,12.04,17.2
81,LI,Liechtenstein,LIE,Europe,38378.0,0.9736751916126298,1.0357145705721182,75.99997909733446,2020-03-16,2020-03-25,2020-04-23,4.653847678671378,84.99391714202515,61.609479059346114,0.001605333239338843,-2.7944348018984386,27.6,,,30.25,26.8,23.266666666666666
82,LT,Lithuania,LTU,Europe,2794184.0,0.968882075619804,0.9632192013740604,1702.772177717331,2020-03-12,2020-04-08,2020-06-06,16.418867984873174,98.68330678335376,518.1557558083427,0.00018544081413691537,-3.7317946747023423,25.5,,76.0,27.133333333333333,24.884615384615383,17.933333333333334
83,LU,Luxembourg,LUX,Europe,613894.0,0.978134682013582,1.0548194338281838,3611.992610121552,2020-03-15,2020-03-31,2020-05-23,7.877154712047808,91.46802712520852,2087.082930047295,0.003399744793152067,-2.4685536826888304,28.666666666666668,,1.5,26.0,24.703703703703702,22.142857142857142
84,LV,Latvia,LVA,Europe,1919968.0,0.9856694304913384,0.9579137413336698,1098.965637812676,2020-03-10,2020-04-08,2020-06-10,18.240840476204443,99.04720105893236,302.769739475238,0.00015769520089670142,-3.8021815232582545,42.45945945945946,,,27.77777777777778,35.22222222222222,31.714285714285715
85,MA,Morocco,MAR,Africa,36471766.0,0.9982317829282504,0.8578881882306872,8917.412504443077,2020-04-01,2020-04-27,2020-06-14,19.670528117518945,117.76802829256994,2285.692095168504,6.267017876700853e-05,-4.20293906647101,10.592592592592593,,-12.0,-9.083333333333334,-9.344827586206897,2.4615384615384617
86,MD,Moldova,MDA,Europe,4043258.0,0.9937906134970398,0.7766551205530267,9913.206844588727,2020-03-19,2020-05-03,2020-08-23,24.20117677745838,123.61636304608912,2079.8870648544266,0.0005144086933988448,-3.288691700536314,21.75,,20.0,14.428571428571429,30.142857142857142,1.25
87,ME,Montenegro,MNE,Europe,622182.0,0.9979447570450584,0.9779735259687288,320.7799366588547,2020-03-22,2020-04-04,2020-05-06,7.546769900978746,94.80260913471092,191.3437117792948,0.0003075365596871893,-3.512103248257322,22.166666666666668,,,14.5625,16.0,5.857142857142857
88,MG,Madagascar,MDG,Africa,26969306.0,0.9985926778061616,0.9878807629032672,659.2756319818,2020-05-26,2020-05-30,2020-06-06,6.17001846663845,151.0855275187222,453.9256490178383,1.683119502659202e-05,-4.773885047718189,-37.1,,-55.0,-36.111111111111114,-45.54545454545455,-60.857142857142854
89,MK,North_Macedonia,MKD,Europe,2077132.0,0.9850289386245304,0.915428088729785,2250.469351449521,2020-03-14,2020-04-19,2020-07-10,20.769747280320296,109.6740002174806,547.4396849760608,0.0002635555588070767,-3.579127819389149,48.666666666666664,,,25.5,9.75,6.333333333333333
90,ML,Mali,MLI,Africa,19658023.0,0.9695873120758244,0.9796597350509648,1185.8344730824492,2020-05-04,2020-05-14,2020-05-27,18.58730267198758,134.87148321081577,320.8842878354393,1.6323324468357743e-05,-4.787191386560809,-44.5,,,-41.666666666666664,-36.2,-35.5
91,MN,Mongolia,MNG,Asia,3225166.0,0.9055432816580667,1.3403946035413048,120.540196256057,2020-05-12,2020-05-18,2020-05-28,5.596576842068464,139.04094794848072,88.29376033247752,2.7376501033583237e-05,-4.5626220594493345,-35.666666666666664,,-20.0,-44.5,-39.95238095238095,-43.0
92,MR,Mauritania,MRT,Africa,4525698.0,0.9934694619721316,0.6522314945468741,550.1990410727594,2020-05-18,2020-05-27,2020-06-16,6.856994863266185,148.37846880658054,352.40102376301024,7.786666802844782e-05,-4.108648408684086,-54.0,,,-57.875,-83.6,-57.666666666666664
93,MT,Malta,MLT,Europe,493559.0,0.9881385373159396,1.1946410146208135,511.570295731758,2020-03-11,2020-04-03,2020-05-29,12.640758005571533,93.54483410775906,198.15557070654728,0.0004014830460118188,-3.3963327895608306,42.84615384615385,,31.0,22.142857142857142,28.636363636363637,12.5
94,MU,Mauritius,MUS,Africa,1269670.0,0.9945975236656708,0.8146210949881688,386.8582081678527,2020-03-23,2020-04-05,2020-05-04,8.007942681023392,95.94123421049984,220.43571689045055,0.0001736165435825455,-3.7604088941117886,,,20.0,-6.2727272727272725,-2.5714285714285716,18.0
95,MV,Maldives,MDV,Asia,530957.0,0.95120391155105,0.1019454479687196,15079.409699017284,2020-04-01,2020-07-04,2021-04-13,43.69269826321428,185.78041218333345,1769.722427375547,0.0033330805081683585,-2.477154196141152,0.42857142857142855,,14.5,-2.2666666666666666,10.5,3.25
96,MX,Mexico,MEX,America,127575529.0,0.9965927736295022,0.3606052628876667,299530.4646957199,2020-03-31,2020-06-04,2020-11-02,36.4493561508874,155.7352730963165,42058.12990019822,0.00032967239273762463,-3.481917419807751,17.4,,9.333333333333334,22.625,13.6,6.095238095238095
97,MY,Malaysia,MYS,Asia,31949789.0,0.978175818546805,0.9772210502680048,7793.236017199094,2020-03-12,2020-04-08,2020-05-27,20.34976249559493,98.54087745944048,1933.3051010583652,6.051073141855069e-05,-4.218167597536573,28.714285714285715,,26.0,25.106382978723403,39.61363636363637,39.5
98,NE,Niger,NER,Africa,23310719.0,0.9991275876627728,1.499994473977962,634.5737663505067,2020-04-07,2020-04-11,2020-04-19,4.594046215614962,102.08103702635894,517.4603481502286,2.2198386422582185e-05,-4.653678592812294,-12.5,,,10.0,-14.666666666666666,-17.5
99,NG,Nigeria,NGA,Africa,200963603.0,0.99010881211044,0.9358550780493412,9671.21657524409,2020-05-10,2020-05-19,2020-06-01,12.20303733754993,140.06413798396073,3867.120415979024,1.9242889549402756e-05,-4.7157297129044515,-24.5,,-22.142857142857142,-30.3,-27.3,-37.75
100,NI,Nicaragua,NIC,America,6545503.0,0.9942828258843796,0.662074407168374,1040.6685299115911,2020-05-22,2020-05-28,2020-06-13,4.337204019161632,149.42299782415543,870.8857749150279,0.0001330510084427473,-3.875981829421794,-46.0,,,-27.25,-39.0,-8.0
101,NL,Netherlands,NLD,Europe,17282163.0,0.999039057732938,0.97201761568713,47260.46036472901,2020-03-09,2020-04-08,2020-06-29,15.848069954940788,99.21104276094393,14868.190541678294,0.0008603200040225459,-3.065339978836352,10.5,,,,37.2,22.46153846153846
102,NO,Norway,NOR,Europe,5328212.0,0.997275863136547,0.9915327134160062,8462.079422999625,2020-03-03,2020-03-30,2020-06-07,14.53884608064417,90.09190587644548,2884.8286281851515,0.0005414252714015793,-3.2664614770950404,28.666666666666668,,,31.4,46.44444444444444,41.8
103,NP,Nepal,NPL,Asia,28608715.0,0.9971229266843872,0.1834224100003765,5893.500145362722,2020-05-23,2020-06-11,2020-07-18,14.11087311927982,162.94584370123863,2065.4551897897877,7.219671312709389e-05,-4.141482573943648,-16.875,,-28.444444444444443,-43.19444444444444,-48.333333333333336,-60.5
104,NZ,New_Zealand,NZL,Oceania,4783062.0,0.9997274282995018,1.0294599661836688,1077.6801506340807,2020-03-22,2020-04-01,2020-04-22,5.663166630745814,91.59525434145496,782.0869659028999,0.00016351177674529412,-3.7864509623229248,18.575,,15.0,17.647058823529413,23.4,10.916666666666666
105,OM,Oman,OMN,Asia,4974992.0,0.98930489866456,0.3336635789442676,27753.33547163267,2020-03-25,2020-06-09,2020-12-23,39.79124524845588,161.23861615799336,3573.503118960132,0.0007182932392574967,-3.1436982212278184,-2.0,,41.0,-1.8823529411764706,23.142857142857142,-5.5
106,PA,Panama,PAN,America,4246440.0,0.9910458857715788,0.8290909703363066,14710.258937996794,2020-03-12,2020-04-28,2020-08-28,24.496347875499325,119.2314319020841,3050.704525226956,0.000718414607348027,-3.143624845847784,38.421052631578945,,47.857142857142854,16.88235294117647,30.0625,27.357142857142858
107,PE,Peru,PER,America,32510462.0,0.9991243449939544,0.4093384746668215,348904.75355679344,2020-03-25,2020-05-30,2020-12-02,32.019607832833906,150.84092708307392,55666.77875168483,0.001712272767815014,-2.766427050335944,18.846153846153847,,12.5,-1.4166666666666667,15.5,13.333333333333334
108,PH,Philippines,PHL,Asia,108116622.0,0.9812178490500136,0.8199054334584541,19418.789989471134,2020-04-01,2020-04-30,2020-06-16,27.107162217700974,121.45213458185762,3648.256688820454,3.37437169357775e-05,-4.471807080733604,12.406976744186046,,17.473684210526315,10.883720930232558,14.887640449438202,10.4
109,PK,Pakistan,PAK,Asia,216565317.0,0.9956317421591638,0.3774597558067327,170465.84562867176,2020-04-12,2020-06-02,2020-09-15,33.52421471933562,154.09156008194412,25996.665827944893,0.00012004076270414479,-3.920671253857406,10.666666666666666,,,-18.272727272727273,0.9230769230769231,-15.2
110,PL,Poland,POL,Europe,37972812.0,0.9914937482367866,0.825292601681092,27595.753774822984,2020-03-20,2020-04-27,2020-07-18,24.06955127129666,118.2441882682969,5821.611971688228,0.0001533100043180428,-3.814429504125687,14.181818181818182,,4.0,8.1,27.166666666666668,10.733333333333333
111,PS,Palestine,PSE,Asia,4981422.0,0.9489439229028842,1.1186019664583875,416.336015561267,2020-04-04,2020-04-20,2020-05-12,18.378192043563143,110.57834972196144,113.85044398989682,2.285500886893277e-05,-4.641018605845759,-11.714285714285714,,-14.5,-10.666666666666666,-20.25,-19.142857142857142
112,PT,Portugal,PRT,Europe,10276617.0,0.9907187616711214,0.9652510462765498,32749.141250955014,2020-03-11,2020-04-13,2020-07-10,16.89169685626617,103.51369707179332,9700.240453534438,0.0009439137853959564,-3.0250676712069042,41.91489361702128,,23.0,29.545454545454547,37.294117647058826,25.6875
113,PY,Paraguay,PRY,America,7044639.0,0.9516565058036652,0.4788101008052959,1884.433330968635,2020-04-22,2020-05-27,2020-07-26,27.64108660162057,147.7677201076643,347.316310069808,4.930221549604004e-05,-4.307133564372145,-23.0,,-13.75,-28.363636363636363,-18.5,-25.0
114,QA,Qatar,QAT,Asia,2832071.0,0.9987023813485372,0.2929635179242389,173089.73454077833,2020-03-16,2020-06-09,2021-03-16,37.80114797404813,161.47106401276483,23446.793277680783,0.00827902735407438,-2.0820206824869403,,,11.0,26.142857142857142,13.8,16.2
115,RO,Romania,ROU,Europe,19414458.0,0.9985149459859092,0.8932520967410467,21013.584675490445,2020-03-18,2020-04-21,2020-07-10,19.83105883972484,112.09633130323536,5344.998952321269,0.00027531023283376075,-3.5601776462868506,9.6,,14.5,9.857142857142858,17.5,2.0
116,RS,Serbia,SRB,Europe,6963764.0,0.9976330043680496,0.9548200815786226,11812.547055157858,2020-03-20,2020-04-17,2020-06-27,14.952187767375335,107.71479791325504,3923.4867219764583,0.0005634146593676147,-3.249171857386386,4.5,,25.0,14.5,13.125,11.333333333333334
117,RU,Russia,RUS,Europe,145872260.0,0.9993359175667758,0.5722371553035241,662947.1652918926,2020-03-31,2020-05-18,2020-09-22,24.153241727541754,138.73962537111117,139365.2688190544,0.0009553925387805359,-3.0198181546991947,21.0,,-3.0,-1.8235294117647058,-0.4,-0.75
118,SA,Saudi_Arabia,SAU,Asia,34268529.0,0.9968079339104874,0.2883632422164143,277671.9161163594,2020-03-24,2020-06-09,2021-01-03,38.975145889585534,161.10265829331314,36493.08354285143,0.0010649153788553757,-2.9726849011043726,,,29.5,-0.9090909090909091,-10.0,-10.428571428571429
119,SC,Seychelles,SYC,Africa,97741.0,0.960239084969716,0.9440014085024112,7.869237653316972,2020-03-14,2020-03-25,2020-04-15,10.33181363489635,85.3665828957246,3.640603800835087,3.724745808652548e-05,-4.428903359873089,-36.0,,25.0,8.0,-15.142857142857142,8.375
120,SD,Sudan,SDN,Africa,42813237.0,0.9966036521193192,0.6436518580492988,6799.150285293707,2020-05-05,2020-05-23,2020-06-25,14.038949811888063,144.29919215015968,2393.2617711566404,5.590004257694041e-05,-4.2525878613278305,-67.66666666666667,,0.3333333333333333,-24.0,,-23.4
121,SE,Sweden,SWE,Europe,10230185.0,0.9971555168015608,0.7636355674030549,48467.77159087382,2020-03-04,2020-04-28,2020-09-20,28.269261416322323,118.86798368317456,8739.044266246881,0.0008542410783624032,-3.068419548248498,29.863636363636363,,,46.5,46.10344827586207,35.0
122,SG,Singapore,SGP,Asia,5804343.0,0.987996890140566,0.4319044858228913,77245.25015458395,2020-03-14,2020-05-22,2020-12-10,33.58624675223047,143.47473950343382,11758.625934254342,0.002025832369702194,-2.693396493785837,20.232142857142858,,40.0,-13.2,-0.0963855421686747,7.1
123,SI,Slovenia,SVN,Europe,2080908.0,0.9994486817257862,0.9883273778710882,1381.8440289047844,2020-03-11,2020-03-31,2020-05-16,11.410687178779284,90.50702722228756,586.4698698803115,0.0002818336369893871,-3.550007174863687,22.3125,,8.0,15.142857142857142,12.866666666666667,4.75
124,SK,Slovakia,SVK,Europe,5450421.0,0.9783916026935428,0.893876105520831,1669.135119268752,2020-03-17,2020-04-10,2020-05-28,16.45221904708917,101.34485664648334,506.9332549603077,9.300809147776066e-05,-4.031479267238763,23.789473684210527,,22.0,25.0,35.60526315789474,14.2
125,SL,Sierra_Leone,SLE,Africa,7813207.0,0.9992258488252942,0.5504642250029027,1455.6544783295435,2020-05-02,2020-05-25,2020-07-05,18.52154671570645,146.00861145409627,395.2473502922143,5.0587082908748526e-05,-4.2959603633500825,-21.5,,-13.0,-25.285714285714285,-36.0,-15.4
126,SM,San_Marino,SMR,Europe,34453.0,0.9934353390175216,0.9296158122906364,699.5209264818147,2020-02-23,2020-04-07,2020-08-23,19.93432565818858,97.49029804584052,177.0103858445156,0.005137735054843283,-2.2892282953959397,54.0,,,41.0,40.666666666666664,30.333333333333332
127,SN,Senegal,SEN,Africa,16296362.0,0.9959779951877804,0.8798042283447286,3794.188240517176,2020-04-24,2020-05-13,2020-06-21,13.690574421034729,134.3294608831602,1366.5553111485974,8.385646509009787e-05,-4.0764634489229294,-0.9,,,-17.25,-31.857142857142858,-37.25
128,SO,Somalia,SOM,Africa,15442906.0,0.9950522913090624,0.8475753960605591,2136.0088787891345,2020-04-21,2020-05-09,2020-06-10,15.09558890749648,130.21812369222118,703.1796927244295,4.5534156118312805e-05,-4.341662707766215,2.0,,,-24.9,-36.5,-21.0
129,SS,South_Sudan,SSD,Africa,11062114.0,0.9741670202963618,0.1742478007028556,4955.996145018558,2020-05-13,2020-06-15,2020-08-19,21.756494385025757,166.89768797039994,1152.9929652649112,0.00010422898961852239,-3.982011472204086,,-51.0,,-25.5,-32.375,-26.428571428571427
130,ST,Sao_Tome_and_Principe,STP,Africa,215048.0,0.9397489336704304,0.7719764201789705,562.9335523884008,2020-04-21,2020-05-18,2020-07-29,13.704479116183435,138.78389449144598,202.6485023975916,0.0009423407908819967,-3.0257920092728554,1.8,,-13.0,-10.0,-5.714285714285714,-13.0
131,SV,El_Salvador,SLV,America,6453550.0,0.9927947700773028,0.2074767989147094,10757.816443481264,2020-04-14,2020-06-20,2020-11-15,39.80515029403855,171.87700750972368,1384.618679126046,0.00021455147618381292,-3.6684684930339952,1.6,,-4.125,6.357142857142857,-6.083333333333333,8.3125
132,SZ,Eswatini,SWZ,Africa,1148133.0,0.9857819206407964,0.9184582185471438,296.9261749823271,2020-04-21,2020-05-10,2020-06-17,12.929045809512406,130.91326282015268,112.72075491266008,9.817743668430407e-05,-4.0079883110871855,-9.5,,-15.5,-21.555555555555557,-7.857142857142857,-20.0
133,TD,Chad,TCD,Africa,15946882.0,0.9932780585225264,0.9755739930701708,748.7167315006861,2020-05-08,2020-05-16,2020-05-29,8.907465200676118,137.23966044223357,392.1496794877775,2.4590993994172497e-05,-4.609223916260899,-10.090909090909092,,-50.0,-22.0,-17.90909090909091,-43.75
134,TG,Togo,TGO,Africa,8082359.0,0.9682918742961872,1.499994473977962,275.23910922301746,2020-05-13,2020-05-19,2020-05-28,6.3345314164719255,139.7072557355822,185.9235751069521,2.300362741953829e-05,-4.6382036751096525,-44.25,,-44.0,-44.5,-53.0,-54.0
135,TH,Thailand,THA,Asia,69625581.0,0.9949663203642208,1.1058171186232884,2693.4187590952038,2020-03-24,2020-03-31,2020-04-11,7.720363658560889,90.72012827394283,1579.8339604947887,2.26904240913234e-05,-4.644157386935674,14.909090909090908,,-1.6666666666666667,-3.3255813953488373,-30.195652173913043,2.25
136,TJ,Tajikistan,TJK,Asia,9321023.0,0.9948136348830906,0.4978095678197791,6709.105968944059,2020-05-03,2020-05-27,2020-07-21,13.88734714013405,148.11833134047865,2385.829665129835,0.0002559622119943095,-3.5918241453666298,-30.0,,,-69.0,-16.916666666666668,-18.6
137,TL,Timor_Leste,TLS,Asia,1293120.0,0.998899749420359,0.9042115325462255,25.594516669885568,2020-04-17,2020-04-20,2020-04-26,3.540288597462588,111.03061268157808,23.107091426878675,1.7869255310318203e-05,-4.747893546059465,3.4166666666666665,,,-9.8,-14.8,-22.0
138,TN,Tunisia,TUN,Africa,11694721.0,0.9945432778883132,1.1260906850246406,936.8694848736048,2020-03-26,2020-04-06,2020-04-25,9.19867091059443,96.55715917300395,478.2110906104043,4.089119275358551e-05,-4.388370221342325,3.5,,42.0,-10.2,3.977777777777778,-6.0
139,TR,Turkey,TUR,Europe,82003882.0,0.9976583768534852,0.955775618443633,168170.37362689542,2020-03-21,2020-04-18,2020-07-02,15.056501191544474,109.19788417420276,55496.8584758114,0.0006767589182645207,-3.169566012428458,,,46.0,11.538461538461538,-0.8571428571428571,15.166666666666666
140,TT,Trinidad_and_Tobago,TTO,America,1394969.0,0.9946118993073084,1.035983149383477,109.35092366428124,2020-03-19,2020-03-27,2020-04-12,6.150617367410393,87.31425519641544,75.45381581962026,5.40899588590286e-05,-4.266883348883387,-3.4,,14.75,3.5714285714285716,6.5,22.333333333333332
141,UA,Ukraine,UKR,Europe,43993643.0,0.9986648227140554,0.7710972814641065,29032.282727261885,2020-04-01,2020-05-05,2020-07-17,21.4018208201111,125.78821468157804,6861.82781519826,0.00015597316674134624,-3.8069501102258645,-1.375,,10.5,-16.333333333333332,7.730769230769231,-4.571428571428571
142,UK,United_Kingdom,GBR,Europe,66647112.0,0.9993613820283128,0.8912009898670035,281595.44896216155,2020-03-11,2020-04-19,2020-08-05,20.06923423607674,110.4671421074903,70798.57429170472,0.0010622902053386007,-2.973756822840224,40.75925925925926,,24.5,46.25,34.81578947368421,12.838709677419354
143,US,United_States_of_America,USA,America,329064917.0,0.9939562716839752,0.8925138472977711,1932400.430624981,2020-03-13,2020-04-23,2020-08-15,20.073965007930926,113.53525474830658,485700.457181632,0.001476001943961811,-2.83091307052698,20.592105263157894,,,13.76923076923077,19.256410256410255,3.3333333333333335
144,UY,Uruguay,URY,America,3461731.0,0.9824984752461488,0.9514123403020984,808.4221998826915,2020-03-11,2020-04-08,2020-05-28,21.530963698621072,98.95558934609817,189.98216031673036,5.488068261708676e-05,-4.260580495424659,25.846153846153847,,13.0,31.3,39.583333333333336,39.5
145,UZ,Uzbekistan,UZB,Asia,32981715.0,0.9612779818669422,0.9400036151448588,3646.034609938528,2020-04-08,2020-04-28,2020-05-28,19.62961402210012,118.54748401683584,936.2665266026268,2.838744215098053e-05,-4.546873737793275,,,,-14.0,52.0,
146,VC,Saint_Vincent_and_the_Grenadines,VCT,America,110593.0,0.9134966018685288,1.1613898778757412,18.45079919911624,2020-03-24,2020-04-13,2020-05-19,15.636498461916672,103.9075254893721,5.87863355574462,5.315556640786144e-05,-4.2744512497928655,,,,,-1.894736842105263,-6.0
147,VE,Venezuela,VEN,America,28515829.0,0.9972264765797056,1.2001322997050077,1088.0943235825937,2020-05-20,2020-05-25,2020-06-04,5.080583693298668,146.4324362022044,841.0730316243869,2.9494952842661068e-05,-4.530252293856198,-36.111111111111114,,-49.0,-44.55555555555556,-37.5,-65.4
148,ZA,South_Africa,ZAF,Africa,58558267.0,0.97831084522844,0.0355629590546708,776113.9138934179,2020-04-05,2020-09-11,2021-11-02,81.83145680647473,254.96895617716035,48963.95321141934,0.0008361578256989631,-3.0777117412679353,11.8,,-2.5,-6.0,12.133333333333333,2.8
149,ZM,Zambia,ZMB,Africa,17861034.0,0.995187799112518,1.0854062089657524,935.9234676067676,2020-05-11,2020-05-17,2020-05-30,5.663458790300036,138.28135520653305,680.4725420532166,3.809816061338983e-05,-4.4190959916403525,-37.0,,,-32.166666666666664,-50.1,-49.833333333333336
